2017-12-05T08:03:09.348223+00:00 app[web.1]: Mime-Version: 1.0
2017-12-05T08:03:09.348224+00:00 app[web.1]: Content-Type: multipart/alternative;
2017-12-05T08:03:09.348225+00:00 app[web.1]:  boundary="--==_mimepart_5a2652bcb8fce_63695a7092444";
2017-12-05T08:03:09.348225+00:00 app[web.1]:  charset=UTF-8
2017-12-05T08:03:09.348226+00:00 app[web.1]: Content-Transfer-Encoding: 7bit
2017-12-05T08:03:09.348227+00:00 app[web.1]: 
2017-12-05T08:03:09.348227+00:00 app[web.1]: 
2017-12-05T08:03:09.348228+00:00 app[web.1]: Content-Type: text/plain;
2017-12-05T08:03:09.348229+00:00 app[web.1]:  charset=UTF-8
2017-12-05T08:03:09.348229+00:00 app[web.1]: Content-Transfer-Encoding: 7bit
2017-12-05T08:03:09.348228+00:00 app[web.1]: ----==_mimepart_5a2652bcb8fce_63695a7092444
2017-12-05T08:03:09.348230+00:00 app[web.1]: 
2017-12-05T08:03:09.348231+00:00 app[web.1]: Hi Sebastian Peter,
2017-12-05T08:03:09.348231+00:00 app[web.1]: 
2017-12-05T08:03:09.348232+00:00 app[web.1]: Welcome to the Sample App! Click on the link below to activate your account:
2017-12-05T08:03:09.348233+00:00 app[web.1]: https://immense-badlands-30603.herokuapp.com/account_activations/q6o-PmODJ943oRDZWvIlOw/edit?email=sebastian_peter%40web.de
2017-12-05T08:03:09.348233+00:00 app[web.1]: 
2017-12-05T08:03:09.348234+00:00 app[web.1]: ----==_mimepart_5a2652bcb8fce_63695a7092444
2017-12-05T08:03:09.348235+00:00 app[web.1]: Content-Type: text/html;
2017-12-05T08:03:09.348235+00:00 app[web.1]:  charset=UTF-8
2017-12-05T08:03:09.348236+00:00 app[web.1]: Content-Transfer-Encoding: 7bit
2017-12-05T08:03:09.348236+00:00 app[web.1]: 
2017-12-05T08:03:09.348237+00:00 app[web.1]: <!DOCTYPE html>
2017-12-05T08:03:09.348237+00:00 app[web.1]: <html>
2017-12-05T08:03:09.348238+00:00 app[web.1]:   <head>
2017-12-05T08:03:09.348239+00:00 app[web.1]:     <meta http-equiv="Content-Type" content="text/html; charset=utf-8" />
2017-12-05T08:03:09.348239+00:00 app[web.1]:     <style>
2017-12-05T08:03:09.348240+00:00 app[web.1]:       /* Email styles need to be inline */
2017-12-05T08:03:09.348240+00:00 app[web.1]:     </style>
2017-12-05T08:03:09.348241+00:00 app[web.1]:   </head>
2017-12-05T08:03:09.348241+00:00 app[web.1]: 
2017-12-05T08:03:09.348242+00:00 app[web.1]:   <body>
2017-12-05T08:03:09.348242+00:00 app[web.1]:     <h1>Sample App</h1>
2017-12-05T08:03:09.348243+00:00 app[web.1]: 
2017-12-05T08:03:09.348243+00:00 app[web.1]: <p>Hi Sebastian Peter,</p>
2017-12-05T08:03:09.348244+00:00 app[web.1]: 
2017-12-05T08:03:09.348245+00:00 app[web.1]: <p>
2017-12-05T08:03:09.348245+00:00 app[web.1]: Welcome to the Sample App! Click on the link below to activate your account:
2017-12-05T08:03:09.348246+00:00 app[web.1]: 
2017-12-05T08:03:09.348246+00:00 app[web.1]: </p>
2017-12-05T08:03:09.348247+00:00 app[web.1]: <a href="https://immense-badlands-30603.herokuapp.com/account_activations/q6o-PmODJ943oRDZWvIlOw/edit?email=sebastian_peter%40web.de">Activate</a>
2017-12-05T08:03:09.348248+00:00 app[web.1]:   </body>
2017-12-05T08:03:09.348248+00:00 app[web.1]: </html>
2017-12-05T08:03:09.348249+00:00 app[web.1]: 
2017-12-05T08:03:09.348250+00:00 app[web.1]: ----==_mimepart_5a2652bcb8fce_63695a7092444--
2017-12-05T08:03:09.349202+00:00 app[web.1]: I, [2017-12-05T08:03:09.349124 #6]  INFO -- : [d3cc693d-3ffb-4bc4-bf3b-5af9139daa5a] Redirected to https://immense-badlands-30603.herokuapp.com/
2017-12-05T08:03:09.348250+00:00 app[web.1]: 
2017-12-05T08:03:09.349521+00:00 app[web.1]: I, [2017-12-05T08:03:09.349439 #6]  INFO -- : [d3cc693d-3ffb-4bc4-bf3b-5af9139daa5a] Completed 302 Found in 1726ms (ActiveRecord: 34.2ms)
2017-12-05T08:03:09.479753+00:00 app[web.1]: I, [2017-12-05T08:03:09.479669 #6]  INFO -- : [4d27c74f-7642-4897-a0b1-413ad49edd23] Started GET "/" for 93.242.117.193 at 2017-12-05 08:03:09 +0000
2017-12-05T08:03:09.480776+00:00 app[web.1]: I, [2017-12-05T08:03:09.480694 #6]  INFO -- : [4d27c74f-7642-4897-a0b1-413ad49edd23] Processing by StaticPagesController#home as HTML
2017-12-05T08:03:09.482118+00:00 app[web.1]: I, [2017-12-05T08:03:09.482050 #6]  INFO -- : [4d27c74f-7642-4897-a0b1-413ad49edd23]   Rendering static_pages/home.html.erb within layouts/application
2017-12-05T08:03:09.482762+00:00 app[web.1]: I, [2017-12-05T08:03:09.482700 #6]  INFO -- : [4d27c74f-7642-4897-a0b1-413ad49edd23]   Rendered static_pages/home.html.erb within layouts/application (0.5ms)
2017-12-05T08:03:09.484088+00:00 app[web.1]: I, [2017-12-05T08:03:09.484022 #6]  INFO -- : [4d27c74f-7642-4897-a0b1-413ad49edd23]   Rendered layouts/_rails_default.html.erb (1.0ms)
2017-12-05T08:03:09.483928+00:00 app[web.1]: I, [2017-12-05T08:03:09.483868 #6]  INFO -- : [4d27c74f-7642-4897-a0b1-413ad49edd23]   Rendered layouts/_shim.html.erb (0.1ms)
2017-12-05T08:03:09.484331+00:00 app[web.1]: I, [2017-12-05T08:03:09.484272 #6]  INFO -- : [4d27c74f-7642-4897-a0b1-413ad49edd23]   Rendered layouts/_shim.html.erb (0.0ms)
2017-12-05T08:03:09.484888+00:00 app[web.1]: I, [2017-12-05T08:03:09.484830 #6]  INFO -- : [4d27c74f-7642-4897-a0b1-413ad49edd23]   Rendered layouts/_header.html.erb (0.4ms)
2017-12-05T08:03:09.485385+00:00 app[web.1]: I, [2017-12-05T08:03:09.485330 #6]  INFO -- : [4d27c74f-7642-4897-a0b1-413ad49edd23]   Rendered layouts/_footer.html.erb (0.2ms)
2017-12-05T08:03:09.485740+00:00 app[web.1]: I, [2017-12-05T08:03:09.485675 #6]  INFO -- : [4d27c74f-7642-4897-a0b1-413ad49edd23] Completed 200 OK in 5ms (Views: 4.0ms | ActiveRecord: 0.0ms)
2017-12-05T08:03:09.351057+00:00 heroku[router]: at=info method=POST path="/signup" host=immense-badlands-30603.herokuapp.com request_id=d3cc693d-3ffb-4bc4-bf3b-5af9139daa5a fwd="93.242.117.193" dyno=web.1 connect=0ms service=1746ms status=302 bytes=1055 protocol=https
2017-12-05T08:03:09.487353+00:00 heroku[router]: at=info method=GET path="/" host=immense-badlands-30603.herokuapp.com request_id=4d27c74f-7642-4897-a0b1-413ad49edd23 fwd="93.242.117.193" dyno=web.1 connect=1ms service=9ms status=200 bytes=3327 protocol=https
2017-12-05T08:03:09.617788+00:00 heroku[router]: at=info method=GET path="/assets/application-fafd64fb06fad29236e38fce345de15d49c20b1f997a683a27b3c4ec0fe3d5d9.js" host=immense-badlands-30603.herokuapp.com request_id=a8a99ebb-b1e6-4507-89ab-4d0ea58fd5dd fwd="93.242.117.193" dyno=web.1 connect=0ms service=1ms status=304 bytes=112 protocol=https
2017-12-05T08:03:09.794446+00:00 heroku[router]: at=info method=GET path="/favicon.ico" host=immense-badlands-30603.herokuapp.com request_id=caf3862c-44b5-406b-a12b-7794a1093e5d fwd="93.242.117.193" dyno=web.1 connect=0ms service=10ms status=304 bytes=112 protocol=https
2017-12-05T08:04:34.044643+00:00 app[web.1]: I, [2017-12-05T08:04:34.044527 #17]  INFO -- : [acadfc75-03d8-4e2b-ad6d-169b11d3b63e] Started GET "/account_activations/q6o-PmODJ943oRDZWvIlOw/edit?email=sebastian_peter%40web.de" for 93.242.117.193 at 2017-12-05 08:04:34 +0000
2017-12-05T08:04:34.047117+00:00 app[web.1]: I, [2017-12-05T08:04:34.047038 #17]  INFO -- : [acadfc75-03d8-4e2b-ad6d-169b11d3b63e] Processing by AccountActivationsController#edit as HTML
2017-12-05T08:04:34.047227+00:00 app[web.1]: I, [2017-12-05T08:04:34.047160 #17]  INFO -- : [acadfc75-03d8-4e2b-ad6d-169b11d3b63e]   Parameters: {"email"=>"sebastian_peter@web.de", "id"=>"q6o-PmODJ943oRDZWvIlOw"}
2017-12-05T08:04:34.053317+00:00 app[web.1]: D, [2017-12-05T08:04:34.053207 #17] DEBUG -- : [acadfc75-03d8-4e2b-ad6d-169b11d3b63e]   [1m[36mUser Load (1.0ms)[0m  [1m[34mSELECT  "users".* FROM "users" WHERE "users"."email" = $1 LIMIT $2[0m  [["email", "sebastian_peter@web.de"], ["LIMIT", 1]]
2017-12-05T08:04:34.237723+00:00 app[web.1]: D, [2017-12-05T08:04:34.237580 #17] DEBUG -- : [acadfc75-03d8-4e2b-ad6d-169b11d3b63e]   [1m[35mSQL (28.6ms)[0m  [1m[33mUPDATE "users" SET "activated" = 't', "activated_at" = '2017-12-05 08:04:34.207228' WHERE "users"."id" = $1[0m  [["id", 101]]
2017-12-05T08:04:34.238932+00:00 app[web.1]: I, [2017-12-05T08:04:34.238848 #17]  INFO -- : [acadfc75-03d8-4e2b-ad6d-169b11d3b63e] Redirected to https://immense-badlands-30603.herokuapp.com/users/101
2017-12-05T08:04:34.239168+00:00 app[web.1]: I, [2017-12-05T08:04:34.239095 #17]  INFO -- : [acadfc75-03d8-4e2b-ad6d-169b11d3b63e] Completed 302 Found in 192ms (ActiveRecord: 29.6ms)
2017-12-05T08:04:34.240206+00:00 heroku[router]: at=info method=GET path="/account_activations/q6o-PmODJ943oRDZWvIlOw/edit?email=sebastian_peter%40web.de" host=immense-badlands-30603.herokuapp.com request_id=acadfc75-03d8-4e2b-ad6d-169b11d3b63e fwd="93.242.117.193" dyno=web.1 connect=0ms service=198ms status=302 bytes=1041 protocol=https
2017-12-05T08:04:34.427096+00:00 heroku[router]: at=info method=GET path="/users/101" host=immense-badlands-30603.herokuapp.com request_id=77220be2-9a74-4ba8-ac21-f08083473a0e fwd="93.242.117.193" dyno=web.1 connect=0ms service=48ms status=200 bytes=3742 protocol=https
2017-12-05T08:04:34.566381+00:00 heroku[router]: at=info method=GET path="/assets/application-fafd64fb06fad29236e38fce345de15d49c20b1f997a683a27b3c4ec0fe3d5d9.js" host=immense-badlands-30603.herokuapp.com request_id=c3f16785-1be4-4856-874f-0f6917c56a8d fwd="93.242.117.193" dyno=web.1 connect=2ms service=2ms status=304 bytes=112 protocol=https
2017-12-05T08:04:34.381165+00:00 app[web.1]: I, [2017-12-05T08:04:34.381064 #17]  INFO -- : [77220be2-9a74-4ba8-ac21-f08083473a0e] Started GET "/users/101" for 93.242.117.193 at 2017-12-05 08:04:34 +0000
2017-12-05T08:04:34.382351+00:00 app[web.1]: I, [2017-12-05T08:04:34.382283 #17]  INFO -- : [77220be2-9a74-4ba8-ac21-f08083473a0e] Processing by UsersController#show as HTML
2017-12-05T08:04:34.382445+00:00 app[web.1]: I, [2017-12-05T08:04:34.382387 #17]  INFO -- : [77220be2-9a74-4ba8-ac21-f08083473a0e]   Parameters: {"id"=>"101"}
2017-12-05T08:04:34.390076+00:00 app[web.1]: D, [2017-12-05T08:04:34.389953 #17] DEBUG -- : [77220be2-9a74-4ba8-ac21-f08083473a0e]   [1m[36mUser Load (4.2ms)[0m  [1m[34mSELECT  "users".* FROM "users" WHERE "users"."id" = $1 LIMIT $2[0m  [["id", 101], ["LIMIT", 1]]
2017-12-05T08:04:34.392106+00:00 app[web.1]: I, [2017-12-05T08:04:34.392034 #17]  INFO -- : [77220be2-9a74-4ba8-ac21-f08083473a0e]   Rendering users/show.html.erb within layouts/application
2017-12-05T08:04:34.395806+00:00 app[web.1]: I, [2017-12-05T08:04:34.395723 #17]  INFO -- : [77220be2-9a74-4ba8-ac21-f08083473a0e]   Rendered users/show.html.erb within layouts/application (0.9ms)
2017-12-05T08:04:34.400678+00:00 app[web.1]: I, [2017-12-05T08:04:34.400584 #17]  INFO -- : [77220be2-9a74-4ba8-ac21-f08083473a0e]   Rendered layouts/_shim.html.erb (0.1ms)
2017-12-05T08:04:34.408416+00:00 app[web.1]: I, [2017-12-05T08:04:34.408309 #17]  INFO -- : [77220be2-9a74-4ba8-ac21-f08083473a0e]   Rendered layouts/_rails_default.html.erb (8.6ms)
2017-12-05T08:04:34.408758+00:00 app[web.1]: I, [2017-12-05T08:04:34.408693 #17]  INFO -- : [77220be2-9a74-4ba8-ac21-f08083473a0e]   Rendered layouts/_shim.html.erb (0.1ms)
2017-12-05T08:04:34.412809+00:00 app[web.1]: D, [2017-12-05T08:04:34.412725 #17] DEBUG -- : [77220be2-9a74-4ba8-ac21-f08083473a0e]   [1m[36mUser Load (2.8ms)[0m  [1m[34mSELECT  "users".* FROM "users" WHERE "users"."id" = $1 LIMIT $2[0m  [["id", 101], ["LIMIT", 1]]
2017-12-05T08:04:34.418806+00:00 app[web.1]: I, [2017-12-05T08:04:34.418715 #17]  INFO -- : [77220be2-9a74-4ba8-ac21-f08083473a0e]   Rendered layouts/_header.html.erb (9.8ms)
2017-12-05T08:04:34.419394+00:00 app[web.1]: I, [2017-12-05T08:04:34.419325 #17]  INFO -- : [77220be2-9a74-4ba8-ac21-f08083473a0e]   Rendered layouts/_footer.html.erb (0.2ms)
2017-12-05T08:04:34.425834+00:00 app[web.1]: I, [2017-12-05T08:04:34.425741 #17]  INFO -- : [77220be2-9a74-4ba8-ac21-f08083473a0e] Completed 200 OK in 43ms (Views: 31.2ms | ActiveRecord: 7.0ms)
2017-12-05T08:04:34.942985+00:00 heroku[router]: at=info method=GET path="/favicon.ico" host=immense-badlands-30603.herokuapp.com request_id=e40c8035-712b-441e-a530-d352f784522c fwd="93.242.117.193" dyno=web.1 connect=0ms service=6ms status=304 bytes=112 protocol=https
2017-12-05T08:04:52.019050+00:00 heroku[router]: at=info method=GET path="/users" host=immense-badlands-30603.herokuapp.com request_id=99a0c293-a8be-4c39-8646-60509c15b9d2 fwd="93.242.117.193" dyno=web.1 connect=0ms service=46ms status=200 bytes=3615 protocol=https
2017-12-05T08:04:51.974591+00:00 app[web.1]: I, [2017-12-05T08:04:51.974503 #17]  INFO -- : [99a0c293-a8be-4c39-8646-60509c15b9d2] Started GET "/users" for 93.242.117.193 at 2017-12-05 08:04:51 +0000
2017-12-05T08:04:51.979664+00:00 app[web.1]: I, [2017-12-05T08:04:51.979365 #17]  INFO -- : [99a0c293-a8be-4c39-8646-60509c15b9d2] Processing by UsersController#index as HTML
2017-12-05T08:04:51.986785+00:00 app[web.1]: D, [2017-12-05T08:04:51.986683 #17] DEBUG -- : [99a0c293-a8be-4c39-8646-60509c15b9d2]   [1m[36mUser Load (2.1ms)[0m  [1m[34mSELECT  "users".* FROM "users" WHERE "users"."id" = $1 LIMIT $2[0m  [["id", 101], ["LIMIT", 1]]
2017-12-05T08:04:51.989891+00:00 app[web.1]: I, [2017-12-05T08:04:51.989811 #17]  INFO -- : [99a0c293-a8be-4c39-8646-60509c15b9d2]   Rendering users/index.html.erb within layouts/application
2017-12-05T08:04:51.994574+00:00 app[web.1]: D, [2017-12-05T08:04:51.994359 #17] DEBUG -- : [99a0c293-a8be-4c39-8646-60509c15b9d2]   [1m[35m (2.3ms)[0m  [1m[34mSELECT COUNT(*) FROM "users" WHERE "users"."activated" = $1[0m  [["activated", "t"]]
2017-12-05T08:04:51.998056+00:00 app[web.1]: D, [2017-12-05T08:04:51.997959 #17] DEBUG -- : [99a0c293-a8be-4c39-8646-60509c15b9d2]   [1m[36mUser Load (1.8ms)[0m  [1m[34mSELECT  "users".* FROM "users" WHERE "users"."activated" = $1 LIMIT $2 OFFSET $3[0m  [["activated", "t"], ["LIMIT", 30], ["OFFSET", 0]]
2017-12-05T08:04:52.007760+00:00 app[web.1]: I, [2017-12-05T08:04:52.007613 #17]  INFO -- : [99a0c293-a8be-4c39-8646-60509c15b9d2]   Rendered collection of users/_user.html.erb [1 times] (3.4ms)
2017-12-05T08:04:52.008046+00:00 app[web.1]: I, [2017-12-05T08:04:52.007976 #17]  INFO -- : [99a0c293-a8be-4c39-8646-60509c15b9d2]   Rendered users/index.html.erb within layouts/application (18.0ms)
2017-12-05T08:04:52.012066+00:00 app[web.1]: I, [2017-12-05T08:04:52.011542 #17]  INFO -- : [99a0c293-a8be-4c39-8646-60509c15b9d2]   Rendered layouts/_shim.html.erb (0.1ms)
2017-12-05T08:04:52.012501+00:00 app[web.1]: I, [2017-12-05T08:04:52.012230 #17]  INFO -- : [99a0c293-a8be-4c39-8646-60509c15b9d2]   Rendered layouts/_rails_default.html.erb (3.3ms)
2017-12-05T08:04:52.013024+00:00 app[web.1]: I, [2017-12-05T08:04:52.012957 #17]  INFO -- : [99a0c293-a8be-4c39-8646-60509c15b9d2]   Rendered layouts/_shim.html.erb (0.0ms)
2017-12-05T08:04:52.015534+00:00 app[web.1]: I, [2017-12-05T08:04:52.015245 #17]  INFO -- : [99a0c293-a8be-4c39-8646-60509c15b9d2]   Rendered layouts/_header.html.erb (2.0ms)
2017-12-05T08:04:52.016584+00:00 app[web.1]: I, [2017-12-05T08:04:52.016514 #17]  INFO -- : [99a0c293-a8be-4c39-8646-60509c15b9d2]   Rendered layouts/_footer.html.erb (0.4ms)
2017-12-05T08:04:52.017115+00:00 app[web.1]: I, [2017-12-05T08:04:52.017047 #17]  INFO -- : [99a0c293-a8be-4c39-8646-60509c15b9d2] Completed 200 OK in 37ms (Views: 23.4ms | ActiveRecord: 6.2ms)
